------------------------------------
Git global setup
------------------------------------
git config --global user.name "Jose Ernesto Morales Ventura"
git config --global user.email "ktalovmorx@gmail.com"

------------------------------------
Create a new repository
------------------------------------
git clone https://gitlab.com/ktalov/itla_flows.git
cd itla_flows
touch README.md
git add README.md
git commit -m "add README"
git push -u origin master

------------------------------------
Push an existing folder
------------------------------------
cd existing_folder
git init
git remote add origin https://gitlab.com/ktalov/itla_flows.git
git add .
git commit -m "Initial commit"
git push -u origin master

------------------------------------
Push an existing Git repository
------------------------------------
cd existing_repo
git remote rename origin old-origin
git remote add origin https://gitlab.com/ktalov/itla_flows.git
git push -u origin --all
git push -u origin --tags